{
    "name":{
        "first": "String",
        "second": "String",
        "last": "String"
    },
    "username": "String",
    "password": "String",
    "email": "String",
    "phone" : "String",
    "joined_on": "String"
}
